<svg width="70" height="70" viewBox="0 0 70 70" fill="none" xmlns="http://www.w3.org/2000/svg">
<circle cx="35" cy="35" r="35" fill="#F5F5F5"/>
<path d="M19.25 48C19.25 48 17 48 17 45.75C17 43.5 19.25 36.75 30.5 36.75C41.75 36.75 44 43.5 44 45.75C44 48 41.75 48 41.75 48H19.25ZM30.5 34.5C32.2902 34.5 34.0071 33.7888 35.273 32.523C36.5388 31.2571 37.25 29.5402 37.25 27.75C37.25 25.9598 36.5388 24.2429 35.273 22.977C34.0071 21.7112 32.2902 21 30.5 21C28.7098 21 26.9929 21.7112 25.727 22.977C24.4612 24.2429 23.75 25.9598 23.75 27.75C23.75 29.5402 24.4612 31.2571 25.727 32.523C26.9929 33.7888 28.7098 34.5 30.5 34.5Z" fill="#2192FA"/>
<path fill-rule="evenodd" clip-rule="evenodd" d="M47.375 27.75C47.6734 27.75 47.9595 27.8685 48.1705 28.0795C48.3815 28.2905 48.5 28.5766 48.5 28.875V32.25H51.875C52.1734 32.25 52.4595 32.3685 52.6705 32.5795C52.8815 32.7905 53 33.0766 53 33.375C53 33.6734 52.8815 33.9595 52.6705 34.1705C52.4595 34.3815 52.1734 34.5 51.875 34.5H48.5V37.875C48.5 38.1734 48.3815 38.4595 48.1705 38.6705C47.9595 38.8815 47.6734 39 47.375 39C47.0766 39 46.7905 38.8815 46.5795 38.6705C46.3685 38.4595 46.25 38.1734 46.25 37.875V34.5H42.875C42.5766 34.5 42.2905 34.3815 42.0795 34.1705C41.8685 33.9595 41.75 33.6734 41.75 33.375C41.75 33.0766 41.8685 32.7905 42.0795 32.5795C42.2905 32.3685 42.5766 32.25 42.875 32.25H46.25V28.875C46.25 28.5766 46.3685 28.2905 46.5795 28.0795C46.7905 27.8685 47.0766 27.75 47.375 27.75Z" fill="#2192FA"/>
</svg>
