<svg width="36" height="36" viewBox="0 0 36 36" fill="none" xmlns="http://www.w3.org/2000/svg">
<path d="M10.6875 10.6875L25.3125 25.3125M25.3125 10.6875L10.6875 25.3125L25.3125 10.6875Z" stroke="#919192" stroke-width="3" stroke-linecap="round" stroke-linejoin="round"/>
</svg>
