<svg width="32" height="32" viewBox="0 0 32 32" fill="none" xmlns="http://www.w3.org/2000/svg">
<path d="M1.87921 0.369319C1.69089 0.275128 1.47991 0.235681 1.27027 0.255466C1.06064 0.27525 0.860764 0.353472 0.693386 0.481232C0.526008 0.608993 0.397845 0.781164 0.323477 0.978161C0.249109 1.17516 0.231521 1.38907 0.272714 1.59557L3.42946 12.5081C3.48833 12.7114 3.60337 12.8941 3.76139 13.035C3.9194 13.1759 4.11396 13.2693 4.32271 13.3046L17.1252 15.4488C17.7282 15.5681 17.7282 16.4321 17.1252 16.5513L4.32271 18.6956C4.11396 18.7308 3.9194 18.8243 3.76139 18.9652C3.60337 19.1061 3.48833 19.2887 3.42946 19.4921L0.272714 30.4046C0.231521 30.6111 0.249109 30.825 0.323477 31.022C0.397845 31.219 0.526008 31.3911 0.693386 31.5189C0.860764 31.6467 1.06064 31.7249 1.27027 31.7447C1.47991 31.7645 1.69089 31.725 1.87921 31.6308L31.1292 17.0058C31.3158 16.9123 31.4727 16.7687 31.5824 16.5911C31.6921 16.4134 31.7501 16.2088 31.7501 16.0001C31.7501 15.7913 31.6921 15.5867 31.5824 15.4091C31.4727 15.2315 31.3158 15.0878 31.1292 14.9943L1.87921 0.369319Z" fill="#919192"/>
</svg>
